2011-11-28 022759		2011-11-28 101811		Sleeping		
2011-11-28 102124		2011-11-28 102336		Toileting	
2011-11-28 102544		2011-11-28 103300		Showering	
2011-11-28 103423		2011-11-28 104300		Breakfast	
2011-11-28 104948		2011-11-28 105113		Grooming	
2011-11-28 105141		2011-11-28 130507		Spare_TimeTV		
2011-11-28 130604		2011-11-28 130631		Toileting	
2011-11-28 130931		2011-11-28 132909		Leaving	
2011-11-28 133840		2011-11-28 142140		Spare_TimeTV		
2011-11-28 142238		2011-11-28 142707		Toileting	
2011-11-28 142711		2011-11-28 150400		Lunch		
2011-11-28 150459		2011-11-28 150629		Grooming	
2011-11-28 150701		2011-11-28 202000		Spare_TimeTV		
2011-11-28 202055		2011-11-28 202059		Snack	
2011-11-28 202115		2011-11-29 020600		Spare_TimeTV		
2011-11-29 021600		2011-11-29 113100		Sleeping		
2011-11-29 113155		2011-11-29 113655		Toileting	
2011-11-29 113738		2011-11-29 114854		Grooming	
2011-11-29 114957		2011-11-29 115113		Showering	
2011-11-29 120828		2011-11-29 121800		Breakfast	
2011-11-29 121901		2011-11-29 122200		Grooming	
2011-11-29 122238		2011-11-29 122459		Spare_TimeTV		
2011-11-29 132529		2011-11-29 132532		Snack	
2011-11-29 132538		2011-11-29 151226		Spare_TimeTV		
2011-11-29 151328		2011-11-29 151357		Toileting	
2011-11-29 151433		2011-11-29 154554		Lunch		
2011-11-29 154951		2011-11-29 155054		Grooming	
2011-11-29 155204		2011-11-29 161758		Spare_TimeTV		
2011-11-29 161800		2011-11-29 163127		Toileting	
2011-11-29 163417		2011-11-29 170807		Spare_TimeTV		
2011-11-29 170858		2011-11-29 170929		Toileting	
2011-11-29 174300		2011-11-29 185722		Spare_TimeTV		
2011-11-29 190215		2011-11-29 202338		Leaving	
2011-11-29 202800		2011-11-30 011947		Spare_TimeTV		
2011-11-30 012233		2011-11-30 100731		Sleeping		
2011-11-30 101107		2011-11-30 101359		Toileting	
2011-11-30 101445		2011-11-30 101833		Showering	
2011-11-30 102259		2011-11-30 103500		Breakfast	
2011-11-30 103930		2011-11-30 104113		Grooming	
2011-11-30 104138		2011-11-30 130459		Spare_TimeTV		
2011-11-30 130527		2011-11-30 130531		Snack	
2011-11-30 130538		2011-11-30 140934		Spare_TimeTV		
2011-11-30 141116		2011-11-30 141148		Toileting	
2011-11-30 141345		2011-11-30 143409		Spare_TimeTV		
2011-11-30 143942		2011-11-30 150024		Lunch		
2011-11-30 151148		2011-11-30 163911		Spare_TimeTV		
2011-11-30 164001		2011-11-30 164024		Toileting	
2011-11-30 164105		2011-11-30 164109		Snack	
2011-11-30 164115		2011-11-30 180038		Spare_TimeTV		
2011-11-30 180144		2011-11-30 180147		Toileting	
2011-11-30 180154		2011-11-30 184320		Spare_TimeTV		
2011-11-30 185708		2011-11-30 185734		Toileting	
2011-11-30 185739		2011-11-30 193710		Spare_TimeTV		
2011-11-30 193736		2011-11-30 193801		Toileting	
2011-11-30 194644		2011-11-30 200512		Leaving	
2011-11-30 201339		2011-11-30 201348		Grooming	
2011-11-30 201403		2011-12-01 013427		Spare_TimeTV		
2011-12-01 013752		2011-12-01 105045		Sleeping		
2011-12-01 105503		2011-12-01 105532		Grooming	
2011-12-01 105837		2011-12-01 111222		Showering	
2011-12-01 111705		2011-12-01 112949		Breakfast	
2011-12-01 113006		2011-12-01 142902		Spare_TimeTV		
2011-12-01 142937		2011-12-01 145502		Lunch		
2011-12-01 150900		2011-12-01 162617		Spare_TimeTV		
2011-12-01 162635		2011-12-01 162704		Toileting	
2011-12-01 162703		2011-12-01 164640		Spare_TimeTV		
2011-12-01 171723		2011-12-01 172713		Grooming	
2011-12-01 172929		2011-12-01 184951		Leaving	
2011-12-01 185503		2011-12-01 191034		Spare_TimeTV		
2011-12-01 192851		2011-12-01 192959		Toileting	
2011-12-01 193001		2011-12-01 235252		Spare_TimeTV		
2011-12-01 235300		2011-12-01 235328		Grooming	
2011-12-01 235432		2011-12-02 011832		Spare_TimeTV		
2011-12-02 011844		2011-12-02 011857		Grooming	
2011-12-02 011909		2011-12-02 020817		Spare_TimeTV		
2011-12-02 020933		2011-12-02 021356		Grooming	
2011-12-02 021555		2011-12-02 121519		Sleeping		
2011-12-02 121600		2011-12-02 122040		Toileting	
2011-12-02 122041		2011-12-02 132059		Grooming	
2011-12-02 122119		2011-12-02 122540		Showering	
2011-12-02 122747		2011-12-02 133549		Breakfast	
2011-12-02 123747		2011-12-02 144629		Spare_TimeTV		
2011-12-02 144700		2011-12-02 152000		Lunch		
2011-12-02 152405		2011-12-02 155512		Spare_TimeTV		
2011-12-02 155602		2011-12-02 155755		Grooming	
2011-12-02 155800		2011-12-02 163605		Spare_TimeTV		
2011-12-02 163727		2011-12-02 164727		Toileting	
2011-12-02 164739		2011-12-02 193908		Spare_TimeTV		
2011-12-02 194044		2011-12-02 194050		Snack	
2011-12-02 194114		2011-12-02 212609		Spare_TimeTV		
2011-12-02 212709		2011-12-02 214437		Toileting	
2011-12-02 214631		2011-12-03 014108		Spare_TimeTV		
2011-12-03 014702		2011-12-03 115620		Sleeping		
2011-12-03 115715		2011-12-03 115915		Toileting	
2011-12-03 115933		2011-12-03 120159		Grooming	
2011-12-03 120336		2011-12-03 120726		Showering	
2011-12-03 121035		2011-12-03 121930		Breakfast	
2011-12-03 122130		2011-12-03 132836		Spare_TimeTV		
2011-12-03 132900		2011-12-03 132959		Grooming	
2011-12-03 132948		2011-12-03 140120		Spare_TimeTV		
2011-12-03 141110		2011-12-03 141443		Grooming	
2011-12-03 141811		2011-12-03 174837		Leaving	
2011-12-03 175014		2011-12-03 235324		Spare_TimeTV		
2011-12-03 235400		2011-12-03 235451		Toileting	
2011-12-03 235518		2011-12-04 031613		Spare_TimeTV		
2011-12-04 031917		2011-12-04 123749		Sleeping		
2011-12-04 123945		2011-12-04 124544		Toileting	
2011-12-04 124611		2011-12-04 124728		Grooming	
2011-12-04 125056		2011-12-04 125455		Showering	
2011-12-04 125608		2011-12-04 125948		Breakfast	
2011-12-04 130053		2011-12-04 135810		Spare_TimeTV		
2011-12-04 140012		2011-12-04 140342		Toileting	
2011-12-04 141150		2011-12-04 163101		Leaving	
2011-12-04 163400		2011-12-04 172539		Spare_TimeTV		
2011-12-04 172703		2011-12-04 172708		Snack	
2011-12-04 172716		2011-12-04 174356		Spare_TimeTV		
2011-12-04 174500		2011-12-04 174559		Grooming	
2011-12-04 180828		2011-12-04 185752		Spare_TimeTV		
2011-12-04 185806		2011-12-04 185933		Toileting	
2011-12-04 185953		2011-12-04 185959		Snack	
2011-12-04 190004		2011-12-04 222059		Spare_TimeTV		
2011-12-04 222110		2011-12-04 222210		Toileting	
2011-12-04 222219		2011-12-05 012809		Spare_TimeTV		
2011-12-05 013134		2011-12-05 013139		Grooming	
2011-12-05 013510		2011-12-05 114855		Sleeping		
2011-12-05 115301		2011-12-05 115331		Toileting	
2011-12-05 115747		2011-12-05 115755		Grooming	
2011-12-05 120123		2011-12-05 120856		Showering	
2011-12-05 121449		2011-12-05 122437		Breakfast	
2011-12-05 134629		2011-12-05 142646		Spare_TimeTV		
2011-12-05 142836		2011-12-05 142842		Grooming	
2011-12-05 143807		2011-12-05 145506		Leaving	
2011-12-05 145751		2011-12-05 154059		Lunch		
2011-12-05 154225		2011-12-05 154359		Grooming	
2011-12-05 154400		2011-12-05 154416		Toileting	
2011-12-05 154456		2011-12-05 160210		Spare_TimeTV		
2011-12-05 160632		2011-12-05 163632		Toileting	
2011-12-05 163715		2011-12-05 171432		Spare_TimeTV		
2011-12-05 171707		2011-12-05 185716		Leaving	
2011-12-05 190142		2011-12-05 192402		Spare_TimeTV		
2011-12-05 192411		2011-12-05 192416		Snack	
2011-12-05 192422		2011-12-05 200719		Spare_TimeTV		
2011-12-05 200732		2011-12-05 200747		Grooming	
2011-12-05 200812		2011-12-05 200852		Toileting	
2011-12-05 200900		2011-12-05 210625		Spare_TimeTV		
2011-12-05 210635		2011-12-05 210643		Toileting	
2011-12-05 210644		2011-12-05 210700		Grooming	
2011-12-05 210714		2011-12-06 003824		Spare_TimeTV		
2011-12-06 003901		2011-12-06 004041		Toileting	
2011-12-06 004237		2011-12-06 100720		Sleeping		
2011-12-06 110800		2011-12-06 110853		Toileting	
2011-12-06 110949		2011-12-06 111145		Grooming	
2011-12-06 111219		2011-12-06 112557		Showering	
2011-12-06 113019		2011-12-06 113526		Breakfast	
2011-12-06 113934		2011-12-06 143750		Spare_TimeTV		
2011-12-06 144053		2011-12-06 151558		Lunch		
2011-12-06 151835		2011-12-06 152032		Grooming	
2011-12-06 152146		2011-12-06 171104		Spare_TimeTV		
2011-12-06 171304		2011-12-06 171904		Toileting	
2011-12-06 171934		2011-12-06 180626		Spare_TimeTV		
2011-12-06 180703		2011-12-06 180715		Grooming	
2011-12-06 180736		2011-12-06 192233		Spare_TimeTV		
2011-12-06 192250		2011-12-06 192255		Snack	
2011-12-06 192556		2011-12-06 192620		Grooming	
2011-12-06 194028		2011-12-07 000738		Spare_TimeTV		
2011-12-07 000747		2011-12-07 000757		Grooming	
2011-12-07 000810		2011-12-07 005450		Spare_TimeTV		
2011-12-07 005729		2011-12-07 005753		Toileting	
2011-12-07 005956		2011-12-07 104540		Sleeping		
2011-12-07 104615		2011-12-07 104926		Toileting	
2011-12-07 105038		2011-12-07 110419		Grooming	
2011-12-07 110551		2011-12-07 111132		Showering	
2011-12-07 111217		2011-12-07 112004		Breakfast	
2011-12-07 112258		2011-12-07 135610		Spare_TimeTV		
2011-12-07 140334		2011-12-07 143930		Lunch		
2011-12-07 144159		2011-12-07 152803		Spare_TimeTV		
2011-12-07 153123		2011-12-07 153141		Grooming	
2011-12-07 153142		2011-12-07 153146		Toileting	
2011-12-07 153215		2011-12-07 161128		Spare_TimeTV		
2011-12-07 161526		2011-12-07 162109		Grooming	
2011-12-07 162545		2011-12-07 181236		Leaving	
2011-12-07 181456		2011-12-07 181459		Grooming	
2011-12-07 181500		2011-12-07 181503		Toileting	
2011-12-07 181551		2011-12-07 192146		Spare_TimeTV		
2011-12-07 192355		2011-12-07 192846		Snack	
2011-12-07 203750		2011-12-07 203818		Snack	
2011-12-07 203916		2011-12-07 203944		Toileting	
2011-12-07 204029		2011-12-07 204235		Spare_TimeTV		
2011-12-07 205223		2011-12-07 231930		Spare_TimeTV		
2011-12-07 231940		2011-12-07 231956		Toileting	
2011-12-07 232016		2011-12-08 013232		Spare_TimeTV		
2011-12-08 013941		2011-12-08 111429		Sleeping		
2011-12-08 111737		2011-12-08 111748		Grooming	
2011-12-08 111749		2011-12-08 111758		Toileting	
2011-12-08 111802		2011-12-08 111813		Grooming	
2011-12-08 111922		2011-12-08 112417		Showering	
2011-12-08 112512		2011-12-08 113401		Breakfast	
2011-12-08 113609		2011-12-08 134119		Spare_TimeTV		
2011-12-08 140449		2011-12-08 140501		Grooming	
2011-12-08 141003		2011-12-08 162141		Leaving	
2011-12-08 162427		2011-12-08 221323		Spare_TimeTV		
2011-12-08 221335		2011-12-08 221349		Grooming	
2011-12-08 221414		2011-12-08 231237		Spare_TimeTV		
2011-12-08 231409		2011-12-08 231427		Grooming	
2011-12-08 231435		2011-12-09 010307		Spare_TimeTV		
2011-12-09 010424		2011-12-09 010543		Grooming	
2011-12-09 011642		2011-12-09 104907		Sleeping		
2011-12-09 105156		2011-12-09 105227		Toileting	
2011-12-09 105230		2011-12-09 105250		Grooming	
2011-12-09 105458		2011-12-09 105821		Showering	
2011-12-09 110013		2011-12-09 110815		Breakfast	
2011-12-09 110935		2011-12-09 123257		Spare_TimeTV		
2011-12-09 123321		2011-12-09 124215		Grooming	
2011-12-09 124416		2011-12-09 163356		Leaving	
2011-12-09 164553		2011-12-09 165952		Spare_TimeTV		
2011-12-09 170137		2011-12-09 170457		Toileting	
2011-12-09 170638		2011-12-09 175919		Spare_TimeTV		
2011-12-09 175925		2011-12-09 175927		Grooming	
2011-12-09 180218		2011-12-09 181903		Spare_TimeTV		
2011-12-09 183202		2011-12-09 184836		Leaving	
2011-12-09 191954		2011-12-09 210431		Spare_TimeTV		
2011-12-09 210437		2011-12-09 210450		Grooming	
2011-12-09 210459		2011-12-10 001621		Spare_TimeTV		
2011-12-10 001631		2011-12-10 001649		Grooming	
2011-12-10 001705		2011-12-10 004613		Spare_TimeTV		
2011-12-10 005047		2011-12-10 092617		Sleeping		
2011-12-10 092800		2011-12-10 093548		Toileting	
2011-12-10 093716		2011-12-10 094627		Grooming	
2011-12-10 094744		2011-12-10 095242		Showering	
2011-12-10 095518		2011-12-10 100210		Breakfast	
2011-12-10 100320		2011-12-10 123409		Spare_TimeTV		
2011-12-10 125254		2011-12-10 125339		Grooming	
2011-12-10 130403		2011-12-10 170703		Leaving	
2011-12-10 171123		2011-12-10 201651		Spare_TimeTV		
2011-12-10 202154		2011-12-10 202316		Grooming	
2011-12-10 202540		2011-12-11 005605		Leaving	
2011-12-11 010141		2011-12-11 022629		Spare_TimeTV		
2011-12-11 022723		2011-12-11 022844		Grooming	
2011-12-11 023115		2011-12-11 115734		Sleeping		
2011-12-11 115817		2011-12-11 120127		Toileting	
2011-12-11 120225		2011-12-11 120239		Grooming	
2011-12-11 120256		2011-12-11 121842		Showering	
2011-12-11 122157		2011-12-11 123009		Breakfast	
2011-12-11 123249		2011-12-11 142618		Spare_TimeTV		
2011-12-11 143412		2011-12-11 152617		Lunch		
2011-12-11 152859		2011-12-11 153014		Toileting	
2011-12-11 154134		2011-12-11 154330		Grooming	
2011-12-11 154351		2011-12-11 214148		Spare_TimeTV		